Waveforms/siso_waveform.vcd
$date
	Thu Jun  4 12:06:24 2026
$end
$version
	Icarus Verilog
$end
$timescale
	1s
$end
$scope module tb_siso $end
$var wire 1 ! s_out $end
$var reg 1 " clk $end
$var reg 1 # en $end
$var reg 1 $ rst $end
$var reg 1 % s_in $end
$scope module dut $end
$var wire 1 " clk $end
$var wire 1 # en $end
$var wire 1 $ rst $end
$var wire 1 % s_in $end
$var wire 1 ! s_out $end
$var wire 1 & q2 $end
$var wire 1 ' q1 $end
$var wire 1 ( q0 $end
$scope module ff0 $end
$var wire 1 " clk $end
$var wire 1 % d $end
$var wire 1 # en $end
$var wire 1 $ rst $end
$var reg 1 ( q $end
$upscope $end
$scope module ff1 $end
$var wire 1 " clk $end
$var wire 1 ( d $end
$var wire 1 # en $end
$var wire 1 $ rst $end
$var reg 1 ' q $end
$upscope $end
$scope module ff2 $end
$var wire 1 " clk $end
$var wire 1 ' d $end
$var wire 1 # en $end
$var wire 1 $ rst $end
$var reg 1 & q $end
$upscope $end
$scope module ff3 $end
$var wire 1 " clk $end
$var wire 1 & d $end
$var wire 1 # en $end
$var wire 1 $ rst $end
$var reg 1 ! q $end
$upscope $end
$upscope $end
$upscope $end
$enddefinitions $end
#0
$dumpvars
0(
0'
0&
1%
1$
0#
1"
0!
$end
#5
1#
0"
#10
0#
0$
1"
#15
0%
1$
0"
#20
1(
1%
1#
0$
1"
#25
0"
#30
1'
1"
#35
0"
0%
#40
0(
1&
1"
#45
0"
1%
#50
1!
0'
1(
1"
#55
0"
0%
#60
0(
1'
0&
1"
#65
0"
1%
#70
0!
1&
0'
1(
1"
#75
0"
#80
1'
0&
1!
1"
#85
0"
#90
0!
1&
1"
#95
0"
#100
1!
1"
